{
	"abcd1234-abcd-1234-ef56-a1b2c3d4e5f6": {
		"uuid": "abcd1234-abcd-1234-ef56-a1b2c3d4e5f6",
		"name": "Playername",
		"level": 54,
		"stats": {
			"raw": {
				"casualpvp_matchlost:infinite": 18,
				"operatorpvp_death:3:A:infinite": 7,
				"generalpvp_serverdefender:infinite": 21,
				"operatorpvp_death:2:7:infinite": 13,
				"operatorpvp_kills:3:3:infinite": 7,
				"operatorpvp_death:3:8:infinite": 4,
				"generalpvp_bullethit:infinite": 4313,
				"operatorpvp_kills:1:2:infinite": 2,
				"operatorpvp_roundlost:2:7:infinite": 8,
				"rescuehostagepvp_timeplayed:infinite": 4057,
				"operatorpvp_roundlost:3:8:infinite": 1,
				"operatorpvp_roundlost:1:1:infinite": 1,
				"operatorpvp_roundlost:4:5:infinite": 5,
				"operatorpvp_death:2:D:infinite": 9,
				"secureareapvp_bestscore:infinite": 7327,
				"secureareapvp_matchwon:infinite": 57,
				"weapontypepvp_bulletfired:6:infinite": 128,
				"generalpvp_death:infinite": 298,
				"operatorpvp_timeplayed:2:B:infinite": 3270,
				"operatorpvp_roundlost:2:8:infinite": 8,
				"operatorpvp_death:3:2:infinite": 21,
				"casualpvp_kills:infinite": 286,
				"operatorpvp_roundlost:5:2:infinite": 3,
				"operatorpvp_death:3:3:infinite": 1,
				"operatorpvp_death:2:B:infinite": 13,
				"weapontypepvp_kills:2:infinite": 181,
				"operatorpvp_roundlost:2:A:infinite": 2,
				"operatorpvp_roundwon:2:D:infinite": 16,
				"operatorpvp_kills:3:B:infinite": 6,
				"operatorpvp_roundwon:2:6:infinite": 13,
				"operatorpvp_roundlost:2:D:infinite": 8,
				"weapontypepvp_bulletfired:5:infinite": 159,
				"operatorpvp_death:4:4:infinite": 3,
				"weapontypepvp_kills:B:infinite": 2,
				"operatorpvp_roundwon:5:2:infinite": 4,
				"generalpvp_serveraggression:infinite": 14,
				"operatorpvp_timeplayed:3:2:infinite": 7561,
				"operatorpvp_timeplayed:2:C:infinite": 15275,
				"weapontypepvp_kills:6:infinite": 8,
				"generalpvp_timeplayed:infinite": 117900,
				"casualpvp_matchplayed:infinite": 70,
				"operatorpvp_timeplayed:1:1:infinite": 187,
				"operatorpvp_death:3:C:infinite": 11,
				"weapontypepvp_headshot:7:infinite": 20,
				"operatorpvp_kills:5:2:infinite": 6,
				"operatorpvp_death:2:6:infinite": 12,
				"operatorpvp_roundlost:3:6:infinite": 2,
				"operatorpvp_roundlost:2:4:infinite": 1,
				"rankedpvp_matchplayed:infinite": 55,
				"operatorpvp_roundlost:1:2:infinite": 2,
				"rescuehostagepvp_matchplayed:infinite": 6,
				"rankedpvp_kills:infinite": 294,
				"operatorpvp_timeplayed:2:1:infinite": 11792,
				"rankedpvp_timeplayed:infinite": 61405,
				"plantbombpvp_matchlost:infinite": 16,
				"weapontypepvp_headshot:1:infinite": 109,
				"secureareapvp_timeplayed:infinite": 66012,
				"generalpvp_bulletfired:infinite": 6890,
				"weapontypepvp_kills:3:infinite": 14,
				"operatorpvp_timeplayed:4:2:infinite": 1257,
				"casualpvp_timeplayed:infinite": 56495,
				"operatorpvp_roundwon:2:7:infinite": 19,
				"plantbombpvp_matchwon:infinite": 34,
				"operatorpvp_roundlost:4:2:infinite": 1,
				"operatorpvp_roundlost:2:1:infinite": 19,
				"operatorpvp_roundlost:2:B:infinite": 8,
				"operatorpvp_death:3:6:infinite": 4,
				"operatorpvp_roundwon:4:2:infinite": 4,
				"operatorpvp_roundwon:3:C:infinite": 23,
				"operatorpvp_kills:2:D:infinite": 31,
				"operatorpvp_timeplayed:2:9:infinite": 7798,
				"casualpvp_death:infinite": 155,
				"generalpvp_headshot:infinite": 248,
				"operatorpvp_roundwon:3:A:infinite": 8,
				"casualpvp_matchwon:infinite": 52,
				"operatorpvp_kills:2:8:infinite": 9,
				"weapontypepvp_headshot:4:infinite": 10,
				"operatorpvp_roundwon:2:9:infinite": 23,
				"operatorpvp_roundlost:2:C:infinite": 16,
				"operatorpvp_roundwon:2:B:infinite": 9,
				"weapontypepvp_bullethit:4:infinite": 84,
				"operatorpvp_roundwon:5:5:infinite": 37,
				"operatorpvp_roundwon:2:5:infinite": 1,
				"operatorpvp_timeplayed:3:5:infinite": 872,
				"operatorpvp_timeplayed:4:5:infinite": 1493,
				"operatorpvp_roundlost:3:A:infinite": 7,
				"operatorpvp_timeplayed:3:7:infinite": 1280,
				"weapontypepvp_kills:1:infinite": 242,
				"operatorpvp_timeplayed:2:7:infinite": 4927,
				"operatorpvp_death:3:B:infinite": 2,
				"operatorpvp_timeplayed:3:6:infinite": 1902,
				"operatorpvp_kills:2:4:infinite": 1,
				"operatorpvp_kills:4:4:infinite": 2,
				"weapontypepvp_bullethit:6:infinite": 102,
				"generalpvp_meleekills:infinite": 11,
				"weapontypepvp_bullethit:7:infinite": 416,
				"operatorpvp_timeplayed:2:A:infinite": 1779,
				"operatorpvp_roundwon:3:B:infinite": 2,
				"operatorpvp_kills:3:9:infinite": 8,
				"operatorpvp_kills:2:7:infinite": 26,
				"weapontypepvp_headshot:3:infinite": 6,
				"operatorpvp_roundlost:3:C:infinite": 10,
				"operatorpvp_roundlost:3:B:infinite": 2,
				"operatorpvp_roundwon:2:1:infinite": 41,
				"operatorpvp_timeplayed:2:4:infinite": 198,
				"weapontypepvp_bulletfired:7:infinite": 155,
				"operatorpvp_timeplayed:3:D:infinite": 3377,
				"weapontypepvp_headshot:6:infinite": 1,
				"operatorpvp_kills:3:D:infinite": 10,
				"weapontypepvp_bullethit:5:infinite": 165,
				"operatorpvp_death:1:1:infinite": 1,
				"operatorpvp_kills:3:4:infinite": 4,
				"operatorpvp_death:2:4:infinite": 1,
				"secureareapvp_matchlost:infinite": 12,
				"plantbombpvp_matchplayed:infinite": 50,
				"operatorpvp_roundwon:3:7:infinite": 4,
				"operatorpvp_timeplayed:4:3:infinite": 12206,
				"operatorpvp_roundwon:2:3:infinite": 9,
				"operatorpvp_timeplayed:5:2:infinite": 1217,
				"operatorpvp_roundwon:3:2:infinite": 24,
				"generalpvp_gadgetdestroy:infinite": 523,
				"operatorpvp_death:2:A:infinite": 4,
				"weapontypepvp_bulletfired:1:infinite": 3074,
				"rankedpvp_matchlost:infinite": 10,
				"operatorpvp_death:1:2:infinite": 2,
				"operatorpvp_death:4:2:infinite": 3,
				"operatorpvp_roundlost:3:5:infinite": 2,
				"operatorpvp_kills:3:7:infinite": 2,
				"operatorpvp_roundwon:4:3:infinite": 38,
				"weapontypepvp_bulletfired:2:infinite": 3359,
				"rescuehostagepvp_matchwon:infinite": 6,
				"operatorpvp_death:5:5:infinite": 34,
				"operatorpvp_death:2:5:infinite": 2,
				"plantbombpvp_timeplayed:infinite": 47831,
				"operatorpvp_kills:2:9:infinite": 44,
				"operatorpvp_kills:2:B:infinite": 16,
				"operatorpvp_kills:4:5:infinite": 3,
				"operatorpvp_timeplayed:4:4:infinite": 707,
				"operatorpvp_roundlost:3:4:infinite": 3,
				"operatorpvp_death:3:7:infinite": 5,
				"operatorpvp_kills:3:5:infinite": 5,
				"weapontypepvp_bulletfired:B:infinite": 7,
				"generalpvp_killassists:infinite": 174,
				"operatorpvp_kills:4:2:infinite": 3,
				"operatorpvp_timeplayed:2:6:infinite": 4010,
				"operatorpvp_roundwon:3:8:infinite": 5,
				"operatorpvp_roundlost:4:4:infinite": 3,
				"operatorpvp_kills:3:C:infinite": 47,
				"weapontypepvp_bullethit:1:infinite": 1555,
				"operatorpvp_timeplayed:3:B:infinite": 975,
				"operatorpvp_roundlost:2:9:infinite": 15,
				"plantbombpvp_bestscore:infinite": 7147,
				"weapontypepvp_bulletfired:9:infinite": 3,
				"generalpvp_matchplayed:infinite": 125,
				"operatorpvp_roundlost:3:2:infinite": 15,
				"operatorpvp_kills:2:A:infinite": 10,
				"operatorpvp_death:5:2:infinite": 3,
				"operatorpvp_roundlost:3:3:infinite": 1,
				"operatorpvp_timeplayed:3:4:infinite": 569,
				"operatorpvp_death:3:4:infinite": 3,
				"operatorpvp_death:2:1:infinite": 27,
				"rankedpvp_matchwon:infinite": 45,
				"operatorpvp_timeplayed:2:5:infinite": 331,
				"operatorpvp_timeplayed:3:A:infinite": 2848,
				"operatorpvp_roundwon:4:5:infinite": 3,
				"weapontypepvp_bullethit:B:infinite": 28,
				"operatorpvp_timeplayed:3:9:infinite": 1373,
				"operatorpvp_roundlost:2:5:infinite": 1,
				"operatorpvp_death:3:5:infinite": 2,
				"operatorpvp_death:4:3:infinite": 33,
				"generalpvp_matchwon:infinite": 97,
				"generalpvp_matchlost:infinite": 28,
				"operatorpvp_death:2:C:infinite": 27,
				"operatorpvp_timeplayed:3:8:infinite": 1497,
				"operatorpvp_roundlost:4:3:infinite": 22,
				"generalpvp_dbnoassists:infinite": 54,
				"generalpvp_dbno:infinite": 205,
				"operatorpvp_kills:2:3:infinite": 11,
				"operatorpvp_roundwon:3:6:infinite": 7,
				"secureareapvp_matchplayed:infinite": 69,
				"operatorpvp_death:2:3:infinite": 6,
				"operatorpvp_roundwon:3:9:infinite": 1,
				"rescuehostagepvp_bestscore:infinite": 5308,
				"operatorpvp_roundlost:3:9:infinite": 5,
				"operatorpvp_kills:3:6:infinite": 8,
				"operatorpvp_timeplayed:2:8:infinite": 1953,
				"operatorpvp_kills:5:5:infinite": 64,
				"operatorpvp_death:3:9:infinite": 5,
				"operatorpvp_kills:3:A:infinite": 9,
				"operatorpvp_roundwon:3:D:infinite": 15,
				"operatorpvp_roundlost:2:6:infinite": 9,
				"operatorpvp_timeplayed:1:2:infinite": 559,
				"operatorpvp_kills:4:3:infinite": 53,
				"generalpvp_revive:infinite": 13,
				"generalpvp_blindkills:infinite": 3,
				"operatorpvp_roundwon:3:3:infinite": 2,
				"operatorpvp_death:2:9:infinite": 22,
				"operatorpvp_death:2:8:infinite": 7,
				"generalpvp_rappelbreach:infinite": 2,
				"weapontypepvp_headshot:2:infinite": 95,
				"weapontypepvp_kills:5:infinite": 20,
				"generalpvp_penetrationkills:infinite": 47,
				"rankedpvp_death:infinite": 143,
				"operatorpvp_roundwon:2:C:infinite": 58,
				"generalpvp_suicide:infinite": 1,
				"operatorpvp_timeplayed:5:5:infinite": 12453,
				"operatorpvp_roundlost:3:7:infinite": 2,
				"generalpvp_servershacked:infinite": 4,
				"operatorpvp_timeplayed:3:C:infinite": 6258,
				"operatorpvp_death:4:5:infinite": 5,
				"operatorpvp_kills:3:2:infinite": 50,
				"operatorpvp_kills:2:1:infinite": 43,
				"generalpvp_kills:infinite": 580,
				"operatorpvp_timeplayed:2:3:infinite": 1829,
				"operatorpvp_roundwon:2:8:infinite": 2,
				"weapontypepvp_kills:4:infinite": 19,
				"operatorpvp_roundwon:4:4:infinite": 1,
				"operatorpvp_timeplayed:3:3:infinite": 689,
				"weapontypepvp_headshot:5:infinite": 7,
				"operatorpvp_death:3:D:infinite": 6,
				"operatorpvp_timeplayed:2:D:infinite": 4428,
				"operatorpvp_kills:3:8:infinite": 4,
				"weapontypepvp_bullethit:2:infinite": 1868,
				"weapontypepvp_bullethit:3:infinite": 94,
				"operatorpvp_kills:2:C:infinite": 75,
				"weapontypepvp_kills:7:infinite": 49,
				"operatorpvp_roundlost:2:3:infinite": 1,
				"operatorpvp_kills:2:6:infinite": 21,
				"operatorpvp_roundwon:3:5:infinite": 1,
				"operatorpvp_roundwon:2:A:infinite": 8,
				"operatorpvp_roundlost:5:5:infinite": 24
			},
			"weapon": {
				"assault": {
					"kills": 242,
					"headshot": 109,
					"bulletsFired": 3074,
					"bulletsHit": 1555
				},
				"smg": {
					"kills": 181,
					"headshot": 95,
					"bulletsFired": 3359,
					"bulletsHit": 1868
				},
				"lmg": {
					"kills": 14,
					"headshot": 6,
					"bulletsHit": 94
				},
				"sniper": {
					"kills": 19,
					"headshot": 10,
					"bulletsHit": 84
				},
				"pistol": {
					"kills": 20,
					"headshot": 7,
					"bulletsFired": 159,
					"bulletsHit": 165
				},
				"shotgun": {
					"kills": 8,
					"headshot": 1,
					"bulletsFired": 128,
					"bulletsHit": 102
				},
				"mp": {
					"kills": 49,
					"headshot": 20,
					"bulletsFired": 155,
					"bulletsHit": 416
				},
				"shield": {},
				"launcher": {
					"bulletsFired": 3
				},
				"B": {
					"kills": 2,
					"bulletsFired": 7,
					"bulletsHit": 28
				}
			},
			"operator": {
				"smoke": {
					"name": "Smoke",
					"kills": 43,
					"deaths": 27,
					"won": 41,
					"lost": 19,
					"timePlayed": 11792
				},
				"mute": {
					"name": "Mute"
				},
				"sledge": {
					"name": "Sledge"
				},
				"thatcher": {
					"name": "Thatcher"
				},
				"castle": {
					"name": "Castle"
				},
				"ash": {
					"name": "Ash",
					"kills": 50,
					"deaths": 21,
					"won": 24,
					"lost": 15,
					"timePlayed": 7561
				},
				"pulse": {
					"name": "Pulse",
					"kills": 3,
					"deaths": 3,
					"won": 4,
					"lost": 1,
					"timePlayed": 1257
				},
				"thermite": {
					"name": "Thermite",
					"kills": 6,
					"deaths": 3,
					"won": 4,
					"lost": 3,
					"timePlayed": 1217
				},
				"doc": {
					"name": "Doc",
					"kills": 11,
					"deaths": 6,
					"won": 9,
					"lost": 1,
					"timePlayed": 1829
				},
				"rook": {
					"name": "Rook",
					"kills": 7,
					"deaths": 1,
					"won": 2,
					"lost": 1,
					"timePlayed": 689
				},
				"twitch": {
					"name": "Twitch",
					"kills": 53,
					"deaths": 33,
					"won": 38,
					"lost": 22,
					"timePlayed": 12206
				},
				"montagne": {
					"name": "Montagne"
				},
				"glaz": {
					"name": "Glaz",
					"kills": 1,
					"deaths": 1,
					"lost": 1,
					"timePlayed": 198
				},
				"fuze": {
					"name": "Fuze",
					"kills": 4,
					"deaths": 3,
					"lost": 3,
					"timePlayed": 569
				},
				"kapkan": {
					"name": "Kapkan",
					"kills": 2,
					"deaths": 3,
					"won": 1,
					"lost": 3,
					"timePlayed": 707
				},
				"tachanka": {
					"name": "Tachanka"
				},
				"blitz": {
					"name": "Blitz",
					"deaths": 2,
					"won": 1,
					"lost": 1,
					"timePlayed": 331
				},
				"iq": {
					"name": "IQ",
					"kills": 5,
					"deaths": 2,
					"won": 1,
					"lost": 2,
					"timePlayed": 872
				},
				"jager": {
					"name": "Jäger",
					"kills": 3,
					"deaths": 5,
					"won": 3,
					"lost": 5,
					"timePlayed": 1493
				},
				"bandit": {
					"name": "Bandit",
					"kills": 64,
					"deaths": 34,
					"won": 37,
					"lost": 24,
					"timePlayed": 12453
				},
				"buck": {
					"name": "Buck",
					"kills": 21,
					"deaths": 12,
					"won": 13,
					"lost": 9,
					"timePlayed": 4010
				},
				"frost": {
					"name": "Frost",
					"kills": 8,
					"deaths": 4,
					"won": 7,
					"lost": 2,
					"timePlayed": 1902
				},
				"blackbeard": {
					"name": "Blackbeard",
					"kills": 26,
					"deaths": 13,
					"won": 19,
					"lost": 8,
					"timePlayed": 4927
				},
				"valkyrie": {
					"name": "Valkyrie",
					"kills": 2,
					"deaths": 5,
					"won": 4,
					"lost": 2,
					"timePlayed": 1280
				},
				"capitao": {
					"name": "Capitão",
					"kills": 9,
					"deaths": 7,
					"won": 2,
					"lost": 8,
					"timePlayed": 1953
				},
				"caveira": {
					"name": "Caveira",
					"kills": 4,
					"deaths": 4,
					"won": 5,
					"lost": 1,
					"timePlayed": 1497
				},
				"hibana": {
					"name": "Hibana",
					"kills": 44,
					"deaths": 22,
					"won": 23,
					"lost": 15,
					"timePlayed": 7798
				},
				"echo": {
					"name": "Echo",
					"kills": 8,
					"deaths": 5,
					"won": 1,
					"lost": 5,
					"timePlayed": 1373
				},
				"jackal": {
					"name": "Jackal",
					"kills": 10,
					"deaths": 4,
					"won": 8,
					"lost": 2,
					"timePlayed": 1779
				},
				"mira": {
					"name": "Mira",
					"kills": 9,
					"deaths": 7,
					"won": 8,
					"lost": 7,
					"timePlayed": 2848
				},
				"ying": {
					"name": "Ying",
					"kills": 16,
					"deaths": 13,
					"won": 9,
					"lost": 8,
					"timePlayed": 3270
				},
				"lesion": {
					"name": "Lesion",
					"kills": 6,
					"deaths": 2,
					"won": 2,
					"lost": 2,
					"timePlayed": 975
				},
				"ela": {
					"name": "Ela",
					"kills": 75,
					"deaths": 27,
					"won": 58,
					"lost": 16,
					"timePlayed": 15275
				}
			},
			"general": {
				"bulletsFired": 6890,
				"bulletsHit": 4313,
				"headshot": 248,
				"deaths": 298,
				"assists": 174,
				"kills": 580,
				"lost": 28,
				"played": 125,
				"won": 97,
				"meleeKills": 11,
				"penetrationKills": 47,
				"turretKills": 0,
				"revives": 13,
				"timePlayed": 117900,
				"blindKills": 3,
				"dbno": 205,
				"dbnoAssists": 54,
				"gadgetsDestroyed": 523,
				"rappelBreaches": 2,
				"serverAggression": 14,
				"serverDefender": 21,
				"serversHacked": 4,
				"suicides": 1
			},
			"queue": {
				"casual": {
					"kills": 286,
					"deaths": 155,
					"won": 52,
					"lost": 18,
					"played": 70,
					"timePlayed": 56495
				},
				"ranked": {
					"kills": 294,
					"deaths": 143,
					"won": 45,
					"lost": 10,
					"played": 55,
					"timePlayed": 61405
				}
			},
			"mode": {
				"bomb": {
					"won": 34,
					"lost": 16,
					"played": 50,
					"bestScore": 7147,
					"timePlayed": 47831
				},
				"secure": {
					"won": 57,
					"lost": 12,
					"played": 69,
					"bestScore": 7327,
					"timePlayed": 66012
				},
				"hostage": {
					"won": 6,
					"played": 6,
					"bestScore": 5308,
					"timePlayed": 4057
				}
			}
		},
		"ranks": {
			"season": 8,
			"ncsa": {
				"max_mmr": 4563.23566248,
				"skill_mean": 45.6323566248,
				"abandons": 0,
				"region": "ncsa",
				"rank": 20,
				"mmr": 4563.23566248,
				"wins": 25,
				"skill_stdev": 6.50609032953,
				"losses": 3,
				"max_rank": 20
			},
			"emea": {
				"max_mmr": 4002.12532119,
				"skill_mean": 39.1274346084,
				"abandons": 0,
				"region": "emea",
				"rank": 18,
				"mmr": 3912.74346084,
				"wins": 21,
				"skill_stdev": 6.46728517608,
				"losses": 7,
				"max_rank": 18
			},
			"apac": {
				"max_mmr": 0,
				"skill_mean": 25,
				"abandons": 0,
				"region": "apac",
				"rank": 0,
				"mmr": 2500,
				"wins": 0,
				"skill_stdev": 8.334,
				"losses": 0,
				"max_rank": 0
			}
		}
	}
}